-- Merging decision tree log ---
manifest
ADDED from C:\Users\Steph\StudioProjects\battery-home-icon\src\main\AndroidManifest.xml:2:1-60:12
	package
		ADDED from C:\Users\Steph\StudioProjects\battery-home-icon\src\main\AndroidManifest.xml:3:5-52
		INJECTED from C:\Users\Steph\StudioProjects\battery-home-icon\src\main\AndroidManifest.xml
		INJECTED from C:\Users\Steph\StudioProjects\battery-home-icon\src\main\AndroidManifest.xml
	android:versionName
		ADDED from C:\Users\Steph\StudioProjects\battery-home-icon\src\main\AndroidManifest.xml:5:5-34
		INJECTED from C:\Users\Steph\StudioProjects\battery-home-icon\src\main\AndroidManifest.xml
		INJECTED from C:\Users\Steph\StudioProjects\battery-home-icon\src\main\AndroidManifest.xml
	android:versionCode
		ADDED from C:\Users\Steph\StudioProjects\battery-home-icon\src\main\AndroidManifest.xml:4:5-29
		INJECTED from C:\Users\Steph\StudioProjects\battery-home-icon\src\main\AndroidManifest.xml
		INJECTED from C:\Users\Steph\StudioProjects\battery-home-icon\src\main\AndroidManifest.xml
	xmlns:android
		ADDED from C:\Users\Steph\StudioProjects\battery-home-icon\src\main\AndroidManifest.xml:2:11-69
uses-sdk
ADDED from C:\Users\Steph\StudioProjects\battery-home-icon\src\main\AndroidManifest.xml:7:5-9:41
MERGED from [com.android.support:appcompat-v7:23.4.0] C:\Users\Steph\StudioProjects\battery-home-icon\build\intermediates\exploded-aar\com.android.support\appcompat-v7\23.4.0\AndroidManifest.xml:21:5-23:78
MERGED from [com.android.support:animated-vector-drawable:23.4.0] C:\Users\Steph\StudioProjects\battery-home-icon\build\intermediates\exploded-aar\com.android.support\animated-vector-drawable\23.4.0\AndroidManifest.xml:5:5-44
MERGED from [com.android.support:support-vector-drawable:23.4.0] C:\Users\Steph\StudioProjects\battery-home-icon\build\intermediates\exploded-aar\com.android.support\support-vector-drawable\23.4.0\AndroidManifest.xml:5:5-43
MERGED from [com.android.support:support-v4:23.4.0] C:\Users\Steph\StudioProjects\battery-home-icon\build\intermediates\exploded-aar\com.android.support\support-v4\23.4.0\AndroidManifest.xml:20:5-43
MERGED from [com.android.support:support-v4:23.4.0] C:\Users\Steph\StudioProjects\battery-home-icon\build\intermediates\exploded-aar\com.android.support\support-v4\23.4.0\AndroidManifest.xml:20:5-43
MERGED from [com.android.support:support-vector-drawable:23.4.0] C:\Users\Steph\StudioProjects\battery-home-icon\build\intermediates\exploded-aar\com.android.support\support-vector-drawable\23.4.0\AndroidManifest.xml:5:5-43
MERGED from [com.android.support:support-v4:23.4.0] C:\Users\Steph\StudioProjects\battery-home-icon\build\intermediates\exploded-aar\com.android.support\support-v4\23.4.0\AndroidManifest.xml:20:5-43
MERGED from [battery-home-icon:ColorPickerPreference:unspecified] C:\Users\Steph\StudioProjects\battery-home-icon\build\intermediates\exploded-aar\battery-home-icon\ColorPickerPreference\unspecified\AndroidManifest.xml:7:5-9:41
MERGED from [com.android.support:appcompat-v7:23.4.0] C:\Users\Steph\StudioProjects\battery-home-icon\build\intermediates\exploded-aar\com.android.support\appcompat-v7\23.4.0\AndroidManifest.xml:21:5-23:78
MERGED from [com.android.support:animated-vector-drawable:23.4.0] C:\Users\Steph\StudioProjects\battery-home-icon\build\intermediates\exploded-aar\com.android.support\animated-vector-drawable\23.4.0\AndroidManifest.xml:5:5-44
MERGED from [com.android.support:support-vector-drawable:23.4.0] C:\Users\Steph\StudioProjects\battery-home-icon\build\intermediates\exploded-aar\com.android.support\support-vector-drawable\23.4.0\AndroidManifest.xml:5:5-43
MERGED from [com.android.support:support-v4:23.4.0] C:\Users\Steph\StudioProjects\battery-home-icon\build\intermediates\exploded-aar\com.android.support\support-v4\23.4.0\AndroidManifest.xml:20:5-43
MERGED from [com.android.support:support-v4:23.4.0] C:\Users\Steph\StudioProjects\battery-home-icon\build\intermediates\exploded-aar\com.android.support\support-v4\23.4.0\AndroidManifest.xml:20:5-43
MERGED from [com.android.support:support-vector-drawable:23.4.0] C:\Users\Steph\StudioProjects\battery-home-icon\build\intermediates\exploded-aar\com.android.support\support-vector-drawable\23.4.0\AndroidManifest.xml:5:5-43
MERGED from [com.android.support:support-v4:23.4.0] C:\Users\Steph\StudioProjects\battery-home-icon\build\intermediates\exploded-aar\com.android.support\support-v4\23.4.0\AndroidManifest.xml:20:5-43
	tools:overrideLibrary
		ADDED from [com.android.support:appcompat-v7:23.4.0] C:\Users\Steph\StudioProjects\battery-home-icon\build\intermediates\exploded-aar\com.android.support\appcompat-v7\23.4.0\AndroidManifest.xml:23:9-75
	android:targetSdkVersion
		ADDED from C:\Users\Steph\StudioProjects\battery-home-icon\src\main\AndroidManifest.xml:9:9-38
		INJECTED from C:\Users\Steph\StudioProjects\battery-home-icon\src\main\AndroidManifest.xml
		INJECTED from C:\Users\Steph\StudioProjects\battery-home-icon\src\main\AndroidManifest.xml
	android:minSdkVersion
		ADDED from C:\Users\Steph\StudioProjects\battery-home-icon\src\main\AndroidManifest.xml:8:9-35
		INJECTED from C:\Users\Steph\StudioProjects\battery-home-icon\src\main\AndroidManifest.xml
		INJECTED from C:\Users\Steph\StudioProjects\battery-home-icon\src\main\AndroidManifest.xml
application
ADDED from C:\Users\Steph\StudioProjects\battery-home-icon\src\main\AndroidManifest.xml:11:5-58:19
MERGED from [com.android.support:appcompat-v7:23.4.0] C:\Users\Steph\StudioProjects\battery-home-icon\build\intermediates\exploded-aar\com.android.support\appcompat-v7\23.4.0\AndroidManifest.xml:25:5-20
MERGED from [com.android.support:animated-vector-drawable:23.4.0] C:\Users\Steph\StudioProjects\battery-home-icon\build\intermediates\exploded-aar\com.android.support\animated-vector-drawable\23.4.0\AndroidManifest.xml:7:5-20
MERGED from [com.android.support:support-vector-drawable:23.4.0] C:\Users\Steph\StudioProjects\battery-home-icon\build\intermediates\exploded-aar\com.android.support\support-vector-drawable\23.4.0\AndroidManifest.xml:7:5-20
MERGED from [com.android.support:support-v4:23.4.0] C:\Users\Steph\StudioProjects\battery-home-icon\build\intermediates\exploded-aar\com.android.support\support-v4\23.4.0\AndroidManifest.xml:22:5-20
MERGED from [com.android.support:support-v4:23.4.0] C:\Users\Steph\StudioProjects\battery-home-icon\build\intermediates\exploded-aar\com.android.support\support-v4\23.4.0\AndroidManifest.xml:22:5-20
MERGED from [com.android.support:support-vector-drawable:23.4.0] C:\Users\Steph\StudioProjects\battery-home-icon\build\intermediates\exploded-aar\com.android.support\support-vector-drawable\23.4.0\AndroidManifest.xml:7:5-20
MERGED from [com.android.support:support-v4:23.4.0] C:\Users\Steph\StudioProjects\battery-home-icon\build\intermediates\exploded-aar\com.android.support\support-v4\23.4.0\AndroidManifest.xml:22:5-20
MERGED from [com.android.support:appcompat-v7:23.4.0] C:\Users\Steph\StudioProjects\battery-home-icon\build\intermediates\exploded-aar\com.android.support\appcompat-v7\23.4.0\AndroidManifest.xml:25:5-20
MERGED from [com.android.support:animated-vector-drawable:23.4.0] C:\Users\Steph\StudioProjects\battery-home-icon\build\intermediates\exploded-aar\com.android.support\animated-vector-drawable\23.4.0\AndroidManifest.xml:7:5-20
MERGED from [com.android.support:support-vector-drawable:23.4.0] C:\Users\Steph\StudioProjects\battery-home-icon\build\intermediates\exploded-aar\com.android.support\support-vector-drawable\23.4.0\AndroidManifest.xml:7:5-20
MERGED from [com.android.support:support-v4:23.4.0] C:\Users\Steph\StudioProjects\battery-home-icon\build\intermediates\exploded-aar\com.android.support\support-v4\23.4.0\AndroidManifest.xml:22:5-20
MERGED from [com.android.support:support-v4:23.4.0] C:\Users\Steph\StudioProjects\battery-home-icon\build\intermediates\exploded-aar\com.android.support\support-v4\23.4.0\AndroidManifest.xml:22:5-20
MERGED from [com.android.support:support-vector-drawable:23.4.0] C:\Users\Steph\StudioProjects\battery-home-icon\build\intermediates\exploded-aar\com.android.support\support-vector-drawable\23.4.0\AndroidManifest.xml:7:5-20
MERGED from [com.android.support:support-v4:23.4.0] C:\Users\Steph\StudioProjects\battery-home-icon\build\intermediates\exploded-aar\com.android.support\support-v4\23.4.0\AndroidManifest.xml:22:5-20
	android:label
		ADDED from C:\Users\Steph\StudioProjects\battery-home-icon\src\main\AndroidManifest.xml:14:9-41
	android:allowBackup
		ADDED from C:\Users\Steph\StudioProjects\battery-home-icon\src\main\AndroidManifest.xml:12:9-35
	android:icon
		ADDED from C:\Users\Steph\StudioProjects\battery-home-icon\src\main\AndroidManifest.xml:13:9-45
	android:theme
		ADDED from C:\Users\Steph\StudioProjects\battery-home-icon\src\main\AndroidManifest.xml:15:9-40
activity#com.XtraordinairDEV.batteryhomebutton.PreferencesActivity
ADDED from C:\Users\Steph\StudioProjects\battery-home-icon\src\main\AndroidManifest.xml:16:9-24:20
	android:label
		ADDED from C:\Users\Steph\StudioProjects\battery-home-icon\src\main\AndroidManifest.xml:18:13-45
	android:name
		ADDED from C:\Users\Steph\StudioProjects\battery-home-icon\src\main\AndroidManifest.xml:17:13-85
intent-filter#android.intent.action.MAIN+de.robv.android.xposed.category.MODULE_SETTINGS
ADDED from C:\Users\Steph\StudioProjects\battery-home-icon\src\main\AndroidManifest.xml:19:13-23:29
action#android.intent.action.MAIN
ADDED from C:\Users\Steph\StudioProjects\battery-home-icon\src\main\AndroidManifest.xml:20:17-69
	android:name
		ADDED from C:\Users\Steph\StudioProjects\battery-home-icon\src\main\AndroidManifest.xml:20:25-66
category#de.robv.android.xposed.category.MODULE_SETTINGS
ADDED from C:\Users\Steph\StudioProjects\battery-home-icon\src\main\AndroidManifest.xml:22:17-92
	android:name
		ADDED from C:\Users\Steph\StudioProjects\battery-home-icon\src\main\AndroidManifest.xml:22:27-89
activity#com.XtraordinairDEV.batteryhomebutton.MainActivity
ADDED from C:\Users\Steph\StudioProjects\battery-home-icon\src\main\AndroidManifest.xml:25:9-33:20
	android:enabled
		ADDED from C:\Users\Steph\StudioProjects\battery-home-icon\src\main\AndroidManifest.xml:27:13-36
	android:name
		ADDED from C:\Users\Steph\StudioProjects\battery-home-icon\src\main\AndroidManifest.xml:26:13-78
intent-filter#android.intent.action.MAIN+android.intent.category.LAUNCHER
ADDED from C:\Users\Steph\StudioProjects\battery-home-icon\src\main\AndroidManifest.xml:28:13-32:29
category#android.intent.category.LAUNCHER
ADDED from C:\Users\Steph\StudioProjects\battery-home-icon\src\main\AndroidManifest.xml:31:17-77
	android:name
		ADDED from C:\Users\Steph\StudioProjects\battery-home-icon\src\main\AndroidManifest.xml:31:27-74
meta-data#xposedmodule
ADDED from C:\Users\Steph\StudioProjects\battery-home-icon\src\main\AndroidManifest.xml:49:9-51:36
	android:value
		ADDED from C:\Users\Steph\StudioProjects\battery-home-icon\src\main\AndroidManifest.xml:51:13-33
	android:name
		ADDED from C:\Users\Steph\StudioProjects\battery-home-icon\src\main\AndroidManifest.xml:50:13-40
meta-data#xposedminversion
ADDED from C:\Users\Steph\StudioProjects\battery-home-icon\src\main\AndroidManifest.xml:52:9-54:35
	android:value
		ADDED from C:\Users\Steph\StudioProjects\battery-home-icon\src\main\AndroidManifest.xml:54:13-32
	android:name
		ADDED from C:\Users\Steph\StudioProjects\battery-home-icon\src\main\AndroidManifest.xml:53:13-44
meta-data#xposeddescription
ADDED from C:\Users\Steph\StudioProjects\battery-home-icon\src\main\AndroidManifest.xml:55:9-57:70
	android:value
		ADDED from C:\Users\Steph\StudioProjects\battery-home-icon\src\main\AndroidManifest.xml:57:13-67
	android:name
		ADDED from C:\Users\Steph\StudioProjects\battery-home-icon\src\main\AndroidManifest.xml:56:13-45
